ADE4とade4∆IDR株の生育曲線の解析
…
IDの最後の数字を変数replicateに格納。またnitrogenのレベル順を規定しておく。

tldata <- tldata %>% 
  mutate(replicate = str_sub(ID, -1, -1))
levels(tldata$nitrogen)

## NULL

tldata$nitrogen <- fct_relevel(tldata$nitrogen, c("38 mM AS","1 mM AS","8 mM proline"))
tldata

## # A tibble: 30,744 × 8
##    second ID       OD strain   nitrogen adenine    hours replicate
##     <dbl> <chr> <dbl> <chr>    <fct>    <chr>      <dbl> <chr>    
##  1      0 wha-1 0.032 Ade4     38 mM AS adenine(+)     0 1        
##  2      0 wha-2 0.031 Ade4     38 mM AS adenine(+)     0 2        
##  3      0 wha-3 0.035 Ade4     38 mM AS adenine(+)     0 3        
##  4      0 wha-4 0.03  Ade4     38 mM AS adenine(+)     0 4        
##  5      0 wha-5 0.032 Ade4     38 mM AS adenine(+)     0 5        
##  6      0 wha-6 0.033 Ade4     38 mM AS adenine(+)     0 6        
##  7      0 mha-1 0.033 Ade4∆IDR 38 mM AS adenine(+)     0 1        
##  8      0 mha-2 0.031 Ade4∆IDR 38 mM AS adenine(+)     0 2        
##  9      0 mha-3 0.03  Ade4∆IDR 38 mM AS adenine(+)     0 3        
## 10      0 mha-4 0.033 Ade4∆IDR 38 mM AS adenine(+)     0 4        
## # … with 30,734 more rows
…
## `summarise()` has grouped output by 'strain', 'nitrogen', 'adenine'. You can
## override using the `.groups` argument.

tldata <- left_join(tldata, max_40h) %>%
  mutate(nOD = OD / max)

## Joining with `by = join_by(strain, nitrogen, adenine, replicate)`

tldata

## # A tibble: 30,744 × 10
##    second ID       OD strain   nitrogen adenine    hours replicate   max    nOD
##     <dbl> <chr> <dbl> <chr>    <fct>    <chr>      <dbl> <chr>     <dbl>  <dbl>
##  1      0 wha-1 0.032 Ade4     38 mM AS adenine(+)     0 1          1.21 0.0264
##  2      0 wha-2 0.031 Ade4     38 mM AS adenine(+)     0 2          1.26 0.0245
##  3      0 wha-3 0.035 Ade4     38 mM AS adenine(+)     0 3          1.29 0.0271
##  4      0 wha-4 0.03  Ade4     38 mM AS adenine(+)     0 4          1.26 0.0238
##  5      0 wha-5 0.032 Ade4     38 mM AS adenine(+)     0 5          1.24 0.0259
##  6      0 wha-6 0.033 Ade4     38 mM AS adenine(+)     0 6          1.16 0.0284
##  7      0 mha-1 0.033 Ade4∆IDR 38 mM AS adenine(+)     0 1          1.14 0.0290
##  8      0 mha-2 0.031 Ade4∆IDR 38 mM AS adenine(+)     0 2          1.20 0.0258
##  9      0 mha-3 0.03  Ade4∆IDR 38 mM AS adenine(+)     0 3          1.19 0.0251
## 10      0 mha-4 0.033 Ade4∆IDR 38 mM AS adenine(+)     0 4          1.25 0.0263
## # … with 30,734 more rows
…
