Ade4顆粒形成における1,6-hexanediolの作用の検証
…
foci_stat <-       
  foci_stat %>% 　　　　　　　　　　
  mutate(condition =case_when(　　　　　　　　　　　
    str_detect(file_name, "hd") ~ "1,6-HD",        
    str_detect(file_name, "digit") ~ "digitonin",   
    TRUE ~ "untreated"))            

この時点ではconditionが文字列型なのでfactor型に変換しておく、文字列型のままだと後の検定でエラーになる。さらにfct_relevel()でレベル順を変更。

foci_stat$condition <- as_factor(foci_stat$condition)
foci_stat$condition <- fct_relevel(foci_stat$condition, c("untreated", "digitonin", "1,6-HD"))
foci_stat

## # A tibble: 73 × 8
##        X file_name  total_cell_number foci_cell pct_foci_cell prominence defocus
##    <int> <chr>                  <int>     <int>         <dbl>      <int> <lgl>  
##  1     1 Ade4_mNG_…               327       164          50.2        875 NA     
##  2     2 Ade4_mNG_…               337       228          67.7        875 NA     
##  3     3 Ade4_mNG_…               312       271          86.9        875 NA     
##  4     4 Ade4_mNG_…               306       275          89.9        875 NA     
##  5     5 Ade4_mNG_…               281       238          84.7        875 NA     
##  6     6 Ade4_mNG_…               283       190          67.1        875 NA     
##  7     7 Ade4_mNG_…               281       168          59.8        875 NA     
##  8     8 Ade4_mNG_…               284       180          63.4        875 NA     
##  9     9 Ade4_mNG_…               329       119          36.2        875 NA     
## 10    10 Ade4_mNG_…               310       111          35.8        875 NA     
## # ℹ 63 more rows
## # ℹ 1 more variable: condition <fct>
…
  #「.」でcsv_listの位置を明示
  sapply(., read.csv, header =TRUE, sep = ",", stringsAsFactors = FALSE, simplify = FALSE) %>% 
  bind_rows()
dat <- as_tibble(dat)  # tibble形式にしておく
dat <-       
  dat %>% 　　　　　　　　　　
  mutate(condition =case_when(　　　　　　　　　　　
    str_detect(file_name, "hd") ~ "1,6-HD",        
    str_detect(file_name, "digit") ~ "digitonin",   
    TRUE ~ "untreated"))   
dat$condition <- as_factor(dat$condition)
dat$condition <- fct_relevel(dat$condition, c("untreated", "digitonin", "1,6-HD"))
dat

## # A tibble: 73 × 8
##        X file_name  total_cell_number foci_cell pct_foci_cell prominence defocus
##    <int> <chr>                  <int>     <int>         <dbl>      <int> <lgl>  
##  1     1 Ade4_mNG_…               327       164          50.2        875 NA     
##  2     2 Ade4_mNG_…               337       228          67.7        875 NA     
##  3     3 Ade4_mNG_…               312       271          86.9        875 NA     
##  4     4 Ade4_mNG_…               306       275          89.9        875 NA     
##  5     5 Ade4_mNG_…               281       238          84.7        875 NA     
##  6     6 Ade4_mNG_…               283       190          67.1        875 NA     
##  7     7 Ade4_mNG_…               281       168          59.8        875 NA     
##  8     8 Ade4_mNG_…               284       180          63.4        875 NA     
##  9     9 Ade4_mNG_…               329       119          36.2        875 NA     
## 10    10 Ade4_mNG_…               310       111          35.8        875 NA     
## # ℹ 63 more rows
## # ℹ 1 more variable: condition <fct>
…
